…
## Penggunaan
Terdapat tiga fungsi utama dalam package ini:
- `create_filter()` digunakan untuk membuat filter yang diinginkan
- `imputation_sample()` digunakan untuk memilih sampel imputasi dari filter yang telah dibuat dengan total weight tertentu
- `mutate_sample()` digunakan untuk mengubah nilai atribut-atribut tertentu dari sampel yang telah dipilih yang teridentifikasi dengan flag tertentu

## Implementasi

```r
library(imputationSample)

# Lihat data dummy
survei_dummy
#> # A tibble: 3,727 x 225
#>   urutan tahun Weight_R SMT   KODE_PROV NAMA_PROV KODE_KAB NAMA_KAB KLASIFIKASI ...
#>    <dbl> <dbl>    <dbl> <chr> <dbl+lbl> <chr>        <dbl> <chr>    <dbl+lbl>   ...
#> 1     12 20182     1078 1     11        ACEH             1 SIMEULUE 2           ...
#> 2     22 20182      666 1     11        ACEH             1 SIMEULUE 2           ...
#> 3     27 20182      508 1     11        ACEH             1 SIMEULUE 2           ...
#> # ... with 3,724 more rows, and 216 more variables
…
